1479351301:3366:Der_Vorleser_(Film) 
1479351301:1971:Der_Vorleser 
1479351301:973:Amon_D%C3%BC%C3%BCl 
1479351301:790:David_Kross 
1479351301:646:Apsley_Cherry-Garrard 
1479351301:599:Daryl_Hannah 
1479351301:538:Adrian_Lewis 
1479351301:490:Charlie_Sheen 
1479351301:461:Andr%C3%A9_Rieu 
1479351301:453:Daisy_Ridley 
1479351312:1358:File:IAF_Crest.svg 
1479351312:1213:File:Hillary_Clinton_official_Secretary_of_State_portrait_crop.jpg 
1479351312:1018:File:Donald_August_19_(cropped).jpg 
1479351312:921:File:Nataliecole2007.jpg 
1479351312:834:Facebook 
1479351312:764:File:Fort_Gibson_Lake_Oklahoma.jpg 
1479351312:760:File:TheVoiceTitleCard.png 
1479351312:747:File:Alan_Alda_by_Bridget_Laudien.jpg 
1479351312:720:File:Gohouri.JPG 
1479351312:693:File:Putin_with_flag_of_Russia.jpg 
1479351322:58254:Special:UserLogin 
1479351322:14724:Special:Search 
1479351322:3529:Special:Watchlist 
1479351322:1392:Special:HideBanners 
1479351322:792:Spectre_(2015_film) 
1479351322:382:Special:MyTalk 
1479351322:327:Special:RecentChanges 
1479351322:317:Special:MyContributions 
1479351322:245:Special:Upload 
1479351322:206:Spider-Man 
1479351333:2623:P%C3%A9ritas 
1479351333:1520:P%e9ritas 
1479351333:1512:Mer_Baltique 
1479351333:1030:Nouvelle-%C3%89cosse 
1479351333:849:Jean-Paul_Belmondo 
1479351333:827:Natacha_Harry 
1479351333:738:Lio 
1479351333:679:Le_Sang_de_la_vigne 
1479351333:625:Jenifer 
1479351333:483:NCIS_:_Los_Angeles 
1479351343:4658:Wikipedia:Strona_g%C5%82%C3%B3wna 
1479351343:1510:Gwiezdne_wojny 
1479351343:1209:index.html 
1479351343:795:Kategoria:Zawody_filmowe 
1479351343:571:Strona_g%C5%82%C3%B3wna 
1479351343:472:Rak_sutka 
1479351343:464:James_Bond 
1479351343:451:Rachel_Weisz 
1479351343:429:Jaros%C5%82aw_Kurski 
1479351343:322:Specjalna:Obserwowane 
1479351353:13148:Special:NewItem 
1479351353:1014:Wikidata:Property_creators 
1479351353:452:Wikidata:CheckUser 
1479351353:250:Wikidata:Main_Page 
1479351353:142:yo 
1479351353:140:Wikidata:Property_proposal/Archive/42 
1479351353:140:Wikidata_talk:Administrators 
1479351353:111:yi 
1479351353:105:Wikidata:Requests_for_permissions/Other_rights 
1479351353:85:Wikidata:CheckUser/zh 
